<svg width="64" height="36" viewBox="0 0 64 36" fill="none" xmlns="http://www.w3.org/2000/svg">
<path d="M44.1078 16.306L31.2119 10.7028L14.1546 11.9834L1.4609 22.9212L19.3492 30.4019L29.9579 28.6186L44.1078 16.306Z" fill="#E34737"/>
<path d="M18.2893 11.6732C18.0615 10.9472 24.1763 4.69466 24.1763 4.69466L33.2046 4.01685L26.9041 11.0264L18.2893 11.6732Z" fill="#FFC856"/>
<path d="M19.3492 30.402L27.6593 33.3889L38.6474 31.2752L29.9579 28.6187L19.3492 30.402Z" fill="#FF513F"/>
<path d="M19.2582 21.0394L19.5131 24.4337L27.4053 28.0092L28.0278 17.8384L19.2582 21.0394Z" fill="#FFC856"/>
<path d="M38.9971 14.089L48.7271 1.67866L62.1401 9.55345L44.1075 16.306L60.1342 22.0689L47.1872 27.3251L41.9279 18.1996L38.9971 14.089Z" fill="#FF513F"/>
<path d="M14.1548 11.9834L13.4466 20.8603L1.46111 22.9212L14.1548 11.9834Z" fill="#FFD45D"/>
<path d="M19.3489 30.4019L13.4461 20.8603L1.4606 22.9212L19.3489 30.4019Z" fill="#FFB300"/>
</svg>
