<svg width="72" height="54" viewBox="0 0 72 54" fill="none" xmlns="http://www.w3.org/2000/svg">
<rect y="17.9785" width="25.4263" height="50.8526" transform="rotate(-45 0 17.9785)" fill="#FF513F"/>
<rect x="35.9424" y="53.9375" width="25.4263" height="50.8526" transform="rotate(-135 35.9424 53.9375)" fill="#FF513F"/>
</svg>
