<svg width="47" height="2508" viewBox="0 0 47 2508" fill="none" xmlns="http://www.w3.org/2000/svg">
<path d="M23.2811 2451H0L23.2811 2479.5H46.6405L23.2811 2451Z" fill="#001E20"/>
<path d="M23.2811 2479.5H46.6405L23.2811 2508H0L23.2811 2479.5Z" fill="#FFC856"/>
<path d="M23.2811 2394H0L23.2811 2422.5H46.6405L23.2811 2394Z" fill="#001E20"/>
<path d="M23.2811 2422.5H46.6405L23.2811 2451H0L23.2811 2422.5Z" fill="#FFC856"/>
<path d="M23.2811 2337H0L23.2811 2365.5H46.6405L23.2811 2337Z" fill="#001E20"/>
<path d="M23.2811 2365.5H46.6405L23.2811 2394H0L23.2811 2365.5Z" fill="#FFC856"/>
<path d="M23.2811 2280H0L23.2811 2308.5H46.6405L23.2811 2280Z" fill="#001E20"/>
<path d="M23.2811 2308.5H46.6405L23.2811 2337H0L23.2811 2308.5Z" fill="#FFC856"/>
<path d="M23.2811 2223H0L23.2811 2251.5H46.6405L23.2811 2223Z" fill="#001E20"/>
<path d="M23.2811 2251.5H46.6405L23.2811 2280H0L23.2811 2251.5Z" fill="#FFC856"/>
<path d="M23.2811 2166H0L23.2811 2194.5H46.6405L23.2811 2166Z" fill="#001E20"/>
<path d="M23.2811 2194.5H46.6405L23.2811 2223H0L23.2811 2194.5Z" fill="#FFC856"/>
<path d="M23.2811 2109H0L23.2811 2137.5H46.6405L23.2811 2109Z" fill="#001E20"/>
<path d="M23.2811 2137.5H46.6405L23.2811 2166H0L23.2811 2137.5Z" fill="#FFC856"/>
<path d="M23.2811 2052H0L23.2811 2080.5H46.6405L23.2811 2052Z" fill="#001E20"/>
<path d="M23.2811 2080.5H46.6405L23.2811 2109H0L23.2811 2080.5Z" fill="#FFC856"/>
<path d="M23.2811 1995H0L23.2811 2023.5H46.6405L23.2811 1995Z" fill="#001E20"/>
<path d="M23.2811 2023.5H46.6405L23.2811 2052H0L23.2811 2023.5Z" fill="#FFC856"/>
<path d="M23.2811 1938H0L23.2811 1966.5H46.6405L23.2811 1938Z" fill="#001E20"/>
<path d="M23.2811 1966.5H46.6405L23.2811 1995H0L23.2811 1966.5Z" fill="#FFC856"/>
<path d="M23.2811 1881H0L23.2811 1909.5H46.6405L23.2811 1881Z" fill="#001E20"/>
<path d="M23.2811 1909.5H46.6405L23.2811 1938H0L23.2811 1909.5Z" fill="#FFC856"/>
<path d="M23.2811 1824H0L23.2811 1852.5H46.6405L23.2811 1824Z" fill="#001E20"/>
<path d="M23.2811 1852.5H46.6405L23.2811 1881H0L23.2811 1852.5Z" fill="#FFC856"/>
<path d="M23.2811 1767H0L23.2811 1795.5H46.6405L23.2811 1767Z" fill="#001E20"/>
<path d="M23.2811 1795.5H46.6405L23.2811 1824H0L23.2811 1795.5Z" fill="#FFC856"/>
<path d="M23.2811 1710H0L23.2811 1738.5H46.6405L23.2811 1710Z" fill="#001E20"/>
<path d="M23.2811 1738.5H46.6405L23.2811 1767H0L23.2811 1738.5Z" fill="#FFC856"/>
<path d="M23.2811 1653H0L23.2811 1681.5H46.6405L23.2811 1653Z" fill="#001E20"/>
<path d="M23.2811 1681.5H46.6405L23.2811 1710H0L23.2811 1681.5Z" fill="#FFC856"/>
<path d="M23.2811 1596H0L23.2811 1624.5H46.6405L23.2811 1596Z" fill="#001E20"/>
<path d="M23.2811 1624.5H46.6405L23.2811 1653H0L23.2811 1624.5Z" fill="#FFC856"/>
<path d="M23.2811 1539H0L23.2811 1567.5H46.6405L23.2811 1539Z" fill="#001E20"/>
<path d="M23.2811 1567.5H46.6405L23.2811 1596H0L23.2811 1567.5Z" fill="#FFC856"/>
<path d="M23.2811 1482H0L23.2811 1510.5H46.6405L23.2811 1482Z" fill="#001E20"/>
<path d="M23.2811 1510.5H46.6405L23.2811 1539H0L23.2811 1510.5Z" fill="#FFC856"/>
<path d="M23.2811 1425H0L23.2811 1453.5H46.6405L23.2811 1425Z" fill="#001E20"/>
<path d="M23.2811 1453.5H46.6405L23.2811 1482H0L23.2811 1453.5Z" fill="#FFC856"/>
<path d="M23.2811 1368H0L23.2811 1396.5H46.6405L23.2811 1368Z" fill="#001E20"/>
<path d="M23.2811 1396.5H46.6405L23.2811 1425H0L23.2811 1396.5Z" fill="#FFC856"/>
<path d="M23.2811 1311H0L23.2811 1339.5H46.6405L23.2811 1311Z" fill="#001E20"/>
<path d="M23.2811 1339.5H46.6405L23.2811 1368H0L23.2811 1339.5Z" fill="#FFC856"/>
<path d="M23.2811 1254H0L23.2811 1282.5H46.6405L23.2811 1254Z" fill="#001E20"/>
<path d="M23.2811 1282.5H46.6405L23.2811 1311H0L23.2811 1282.5Z" fill="#FFC856"/>
<path d="M23.2811 1197H0L23.2811 1225.5H46.6405L23.2811 1197Z" fill="#001E20"/>
<path d="M23.2811 1225.5H46.6405L23.2811 1254H0L23.2811 1225.5Z" fill="#FFC856"/>
<path d="M23.2811 1140H0L23.2811 1168.5H46.6405L23.2811 1140Z" fill="#001E20"/>
<path d="M23.2811 1168.5H46.6405L23.2811 1197H0L23.2811 1168.5Z" fill="#FFC856"/>
<path d="M23.2811 1083H0L23.2811 1111.5H46.6405L23.2811 1083Z" fill="#001E20"/>
<path d="M23.2811 1111.5H46.6405L23.2811 1140H0L23.2811 1111.5Z" fill="#FFC856"/>
<path d="M23.2811 1026H0L23.2811 1054.5H46.6405L23.2811 1026Z" fill="#001E20"/>
<path d="M23.2811 1054.5H46.6405L23.2811 1083H0L23.2811 1054.5Z" fill="#FFC856"/>
<path d="M23.2811 969H0L23.2811 997.5H46.6405L23.2811 969Z" fill="#001E20"/>
<path d="M23.2811 997.5H46.6405L23.2811 1026H0L23.2811 997.5Z" fill="#FFC856"/>
<path d="M23.2811 912H0L23.2811 940.5H46.6405L23.2811 912Z" fill="#001E20"/>
<path d="M23.2811 940.5H46.6405L23.2811 969H0L23.2811 940.5Z" fill="#FFC856"/>
<path d="M23.2811 855H0L23.2811 883.5H46.6405L23.2811 855Z" fill="#001E20"/>
<path d="M23.2811 883.5H46.6405L23.2811 912H0L23.2811 883.5Z" fill="#FFC856"/>
<path d="M23.2811 798H0L23.2811 826.5H46.6405L23.2811 798Z" fill="#001E20"/>
<path d="M23.2811 826.5H46.6405L23.2811 855H0L23.2811 826.5Z" fill="#FFC856"/>
<path d="M23.2811 741H0L23.2811 769.5H46.6405L23.2811 741Z" fill="#001E20"/>
<path d="M23.2811 769.5H46.6405L23.2811 798H0L23.2811 769.5Z" fill="#FFC856"/>
<path d="M23.2811 684H0L23.2811 712.5H46.6405L23.2811 684Z" fill="#001E20"/>
<path d="M23.2811 712.5H46.6405L23.2811 741H0L23.2811 712.5Z" fill="#FFC856"/>
<path d="M23.2811 627H0L23.2811 655.5H46.6405L23.2811 627Z" fill="#001E20"/>
<path d="M23.2811 655.5H46.6405L23.2811 684H0L23.2811 655.5Z" fill="#FFC856"/>
<path d="M23.2811 570H0L23.2811 598.5H46.6405L23.2811 570Z" fill="#001E20"/>
<path d="M23.2811 598.5H46.6405L23.2811 627H0L23.2811 598.5Z" fill="#FFC856"/>
<path d="M23.2811 513H0L23.2811 541.5H46.6405L23.2811 513Z" fill="#001E20"/>
<path d="M23.2811 541.5H46.6405L23.2811 570H0L23.2811 541.5Z" fill="#FFC856"/>
<path d="M23.2811 456H0L23.2811 484.5H46.6405L23.2811 456Z" fill="#001E20"/>
<path d="M23.2811 484.5H46.6405L23.2811 513H0L23.2811 484.5Z" fill="#FFC856"/>
<path d="M23.2811 399H0L23.2811 427.5H46.6405L23.2811 399Z" fill="#001E20"/>
<path d="M23.2811 427.5H46.6405L23.2811 456H0L23.2811 427.5Z" fill="#FFC856"/>
<path d="M23.2811 342H0L23.2811 370.5H46.6405L23.2811 342Z" fill="#001E20"/>
<path d="M23.2811 370.5H46.6405L23.2811 399H0L23.2811 370.5Z" fill="#FFC856"/>
<path d="M23.2811 285H0L23.2811 313.5H46.6405L23.2811 285Z" fill="#001E20"/>
<path d="M23.2811 313.5H46.6405L23.2811 342H0L23.2811 313.5Z" fill="#FFC856"/>
<path d="M23.2811 228H0L23.2811 256.5H46.6405L23.2811 228Z" fill="#001E20"/>
<path d="M23.2811 256.5H46.6405L23.2811 285H0L23.2811 256.5Z" fill="#FFC856"/>
<path d="M23.2811 171H0L23.2811 199.5H46.6405L23.2811 171Z" fill="#001E20"/>
<path d="M23.2811 199.5H46.6405L23.2811 228H0L23.2811 199.5Z" fill="#FFC856"/>
<path d="M23.2811 114H0L23.2811 142.5H46.6405L23.2811 114Z" fill="#001E20"/>
<path d="M23.2811 142.5H46.6405L23.2811 171H0L23.2811 142.5Z" fill="#FFC856"/>
<path d="M23.2811 57H0L23.2811 85.5H46.6405L23.2811 57Z" fill="#001E20"/>
<path d="M23.2811 85.5H46.6405L23.2811 114H0L23.2811 85.5Z" fill="#FFC856"/>
<path d="M23.2811 0H0L23.2811 28.5H46.6405L23.2811 0Z" fill="#001E20"/>
<path d="M23.2811 28.5H46.6405L23.2811 57H0L23.2811 28.5Z" fill="#FFC856"/>
</svg>
